%YAML 1.1
%TAG !u! tag:unity3d.com,2011:
--- !u!1045 &1
EditorBuildSettings:
  m_ObjectHideFlags: 0
  serializedVersion: 2
  m_Scenes:
  - enabled: 1
    path: Assets/Scenes/MainMenu.unity
    guid: 34b97f38a1c4219489acda2d18c050e8
  - enabled: 1
    path: Assets/Scenes/Niveles.unity
    guid: b358167d820c43640988c775ecb5f635
  - enabled: 1
    path: Assets/Scenes/SampleScene.unity
    guid: 533e4e5748b172045b4f2d181c76f775
  m_configObjects: {}
